…
## data import

``` r
breast_dat = read_csv("breast-cancer.csv") %>% 
  select(-1, -33) %>% 
  janitor::clean_names() %>% 
  mutate(diagnosis = recode(diagnosis, "M" = 1, "B" = 0))

breast_dat
```

    ## # A tibble: 568 × 31
    ##    diagnosis radius_mean texture_mean perimeter_mean area_mean smoothness_mean
    ##        <dbl>       <dbl>        <dbl>          <dbl>     <dbl>           <dbl>
    ##  1         1        18.0         10.4          123.      1001           0.118 
    ##  2         1        20.6         17.8          133.      1326           0.0847
    ##  3         1        19.7         21.2          130       1203           0.110 
    ##  4         1        11.4         20.4           77.6      386.          0.142 
    ##  5         1        20.3         14.3          135.      1297           0.100 
    ##  6         1        12.4         15.7           82.6      477.          0.128 
    ##  7         1        18.2         20.0          120.      1040           0.0946
    ##  8         1        13.7         20.8           90.2      578.          0.119 
    ##  9         1        13           21.8           87.5      520.          0.127 
    ## 10         1        12.5         24.0           84.0      476.          0.119 
    ## # … with 558 more rows, and 25 more variables: compactness_mean <dbl>,
    ## #   concavity_mean <dbl>, concave_points_mean <dbl>, symmetry_mean <dbl>,
    ## #   fractal_dimension_mean <dbl>, radius_se <dbl>, texture_se <dbl>,
    ## #   perimeter_se <dbl>, area_se <dbl>, smoothness_se <dbl>,
    ## #   compactness_se <dbl>, concavity_se <dbl>, concave_points_se <dbl>,
    ## #   symmetry_se <dbl>, fractal_dimension_se <dbl>, radius_worst <dbl>,
    ## #   texture_worst <dbl>, perimeter_worst <dbl>, area_worst <dbl>, …
…
